[start @2017-10-19 18:25:23]

[PHP ini]

PHP version: 5.6.10
cURL: 7.43.0
ssl: OpenSSL/1.0.2k


[transaction @2017-10-19 18:25:23]
Zahlart: directDebitTransactionWithPaymentPage


[params set @2017-10-19 18:25:23]
merchantId=350000
projectId=14147
merchantTxId=1234567890
amount=1250
currency=EUR
purpose=Spende an den FC
type=SALE
locale=de_DE_stadtn
mandateReference=12345abcde
mandateSignedOn=2014-01-01
mandateReceiverName=Max Mustermann Shops
mandateSequence=1
urlRedirect=https://dev.girosolution.de/redirect.php
urlNotify=https://dev.girosolution.de/notify.php


[cURL request @2017-10-19 18:25:23]
params:
merchantId=350000
projectId=14147
merchantTxId=1234567890
amount=1250
currency=EUR
purpose=Spende an den FC
type=SALE
locale=de_DE_stadtn
mandateReference=12345abcde
mandateSignedOn=2014-01-01
mandateReceiverName=Max Mustermann Shops
mandateSequence=1
urlRedirect=https://dev.girosolution.de/redirect.php
urlNotify=https://dev.girosolution.de/notify.php
hash=531d15d914d13475abafb4f838f7d22f
sourceId=localhost;PHP 2.1.15;;
userAgent=Mozilla/5.0 (Macintosh; Intel Mac OS X 10.12; rv:56.0) Gecko/20100101 Firefox/56.0

CurlInfo:
url=http://mheumann.hopto.org/girocheckout/api/v2/transaction/start
content_type=application/json
http_code=200
header_size=306
request_size=203
filetime=-1
ssl_verify_result=0
redirect_count=0
total_time=0.506285
namelookup_time=0.001578
connect_time=0.001739
pretransfer_time=0.002235
size_upload=2042
size_download=212
speed_download=418
speed_upload=4033
download_content_length=212
upload_content_length=2042
starttransfer_time=0.002246
redirect_time=0
redirect_url=
primary_ip=::1
certinfo {
}
primary_port=80
local_ip=::1
local_port=65287
request_header=POST /girocheckout/api/v2/transaction/start HTTP/1.1
Host: mheumann.hopto.org
Accept: */*
Content-Length: 2042
Content-Type: multipart/form-data; boundary=------------------------e3ec854b0fdc76c2




[cURL reply @2017-10-19 18:25:23]
result:HTTP/1.1 200 OK
Date: Thu, 19 Oct 2017 21:25:23 GMT
Server: Apache
X-Powered-By: PHP/5.6.10
Expires: Sun, 19 Nov 1978 05:00:00 GMT
Cache-Control: no-cache, must-revalidate
X-Content-Type-Options: nosniff
hash: b46bdf2d33efd6e0e1e5a232d7d4fa4e
Content-Length: 212
Content-Type: application/json

{"mandateReference":"12345abcde","reference":"56c29a5b-f496-4ea1-9719-3eadcd924a6d","redirect":"http:\/\/mheumann2.hopto.org\/v1\/directdebit\/formservice\/de_DE_stadtn\/iVBE_X2gKH7ZjZ4xACpHeQ","rc":"0","msg":""}
curl_error log:

[reply params @2017-10-19 18:25:23]
rc=0
msg=
reference=56c29a5b-f496-4ea1-9719-3eadcd924a6d
redirect=http://mheumann2.hopto.org/v1/directdebit/formservice/de_DE_stadtn/iVBE_X2gKH7ZjZ4xACpHeQ


