[start @2017-10-06 14:51:42]

[PHP ini]

PHP version: 5.6.10
cURL: 7.43.0
ssl: OpenSSL/1.0.2k


[transaction @2017-10-06 14:51:42]
Zahlart: giropayIDCheck


[params set @2017-10-06 14:51:42]
merchantId=350000
projectId=7262
merchantTxId=1234567890
bic=TESTDETT421
urlRedirect=https://dev.girosolution.de/redirect.php
urlNotify=https://dev.girosolution.de/notify.php


[cURL request @2017-10-06 14:51:45]
params:
merchantId=350000
projectId=7262
merchantTxId=1234567890
bic=TESTDETT421
urlRedirect=https://dev.girosolution.de/redirect.php
urlNotify=https://dev.girosolution.de/notify.php
hash=70c9a5380d35c3a7622e4fed8c732f7b
sourceId=localhost;PHP 2.1.15;;
userAgent=Mozilla/5.0 (Macintosh; Intel Mac OS X 10.12; rv:55.0) Gecko/20100101 Firefox/55.0

CurlInfo:
url=https://dev.girosolution.de/girocheckout/api/v2/transaction/start
content_type=application/json
http_code=200
header_size=344
request_size=204
filetime=-1
ssl_verify_result=0
redirect_count=0
total_time=2.520088
namelookup_time=0.256499
connect_time=0.53312
pretransfer_time=1.70179
size_upload=1167
size_download=229
speed_download=90
speed_upload=463
download_content_length=229
upload_content_length=1167
starttransfer_time=1.701797
redirect_time=0
redirect_url=
primary_ip=46.252.21.136
certinfo {
}
primary_port=443
local_ip=192.168.0.15
local_port=54555
request_header=POST /girocheckout/api/v2/transaction/start HTTP/1.1
Host: dev.girosolution.de
Accept: */*
Content-Length: 1167
Content-Type: multipart/form-data; boundary=------------------------56009f1049517d6d




[cURL reply @2017-10-06 14:51:45]
result:HTTP/1.1 200 OK
Date: Fri, 06 Oct 2017 17:51:45 GMT
Server: Apache
Strict-Transport-Security: max-age=31536000; includeSubDomains
Expires: Sun, 19 Nov 1978 05:00:00 GMT
Cache-Control: no-cache, must-revalidate
X-Content-Type-Options: nosniff
hash: 36be13823463d948ff002e1f93ce2e53
Content-Length: 229
Content-Type: application/json

{"reference":"a7405c1f-852c-438e-8935-2a60fb291a54","redirect":"https:\/\/ftg-customer-integration.giropay.de\/ftg\/b\/go\/07i2j1k00pp0h7uhtr6bgufk;jsessionid=96349178332704C08194A1A36CE0A11D.sf-testapp01tom21","rc":"0","msg":""}
curl_error log:

[reply params @2017-10-06 14:51:45]
rc=0
msg=
reference=a7405c1f-852c-438e-8935-2a60fb291a54
redirect=https://ftg-customer-integration.giropay.de/ftg/b/go/07i2j1k00pp0h7uhtr6bgufk;jsessionid=96349178332704C08194A1A36CE0A11D.sf-testapp01tom21


