[start @2017-09-30 14:02:49]

[PHP ini]

PHP version: 7.0.8
cURL: 7.43.0
ssl: OpenSSL/1.0.2k


[transaction @2017-09-30 14:02:49]
Zahlart: directDebitTransactionWithPaymentPage


[params set @2017-09-30 14:02:49]
merchantId=350000
projectId=14147
merchantTxId=1234567890
amount=1250
currency=EUR
purpose=Spende an den FC
type=SALE
locale=de_DE_stadtn
mandateReference=12345abcde
mandateSignedOn=2014-01-01
mandateReceiverName=Max Mustermann Shops
mandateSequence=1
urlRedirect=https://dev.girosolution.de/redirect.php
urlNotify=https://dev.girosolution.de/notify.php


[cURL request @2017-09-30 14:02:50]
params:
merchantId=350000
projectId=14147
merchantTxId=1234567890
amount=1250
currency=EUR
purpose=Spende an den FC
type=SALE
locale=de_DE_stadtn
mandateReference=12345abcde
mandateSignedOn=2014-01-01
mandateReceiverName=Max Mustermann Shops
mandateSequence=1
urlRedirect=https://dev.girosolution.de/redirect.php
urlNotify=https://dev.girosolution.de/notify.php
hash=531d15d914d13475abafb4f838f7d22f
sourceId=localhost;PHP 2.1.15;;
userAgent=Mozilla/5.0 (Macintosh; Intel Mac OS X 10.12; rv:55.0) Gecko/20100101 Firefox/55.0

CurlInfo:
url=http://mheumann.hopto.org/girocheckout/api/v2/transaction/start
content_type=application/json
http_code=200
header_size=305
request_size=203
filetime=-1
ssl_verify_result=0
redirect_count=0
total_time=0.749925
namelookup_time=0.00191
connect_time=0.002198
pretransfer_time=0.002993
size_upload=2042
size_download=212
speed_download=282
speed_upload=2722
download_content_length=212
upload_content_length=2042
starttransfer_time=0.003005
redirect_time=0
redirect_url=
primary_ip=::1
certinfo {
}
primary_port=80
local_ip=::1
local_port=62736
request_header=POST /girocheckout/api/v2/transaction/start HTTP/1.1
Host: mheumann.hopto.org
Accept: */*
Content-Length: 2042
Content-Type: multipart/form-data; boundary=------------------------ac333bf91fc73c92




[cURL reply @2017-09-30 14:02:50]
result:HTTP/1.1 200 OK
Date: Sat, 30 Sep 2017 17:02:49 GMT
Server: Apache
X-Powered-By: PHP/7.0.8
Expires: Sun, 19 Nov 1978 05:00:00 GMT
Cache-Control: no-cache, must-revalidate
X-Content-Type-Options: nosniff
hash: 32b014d13dea2de234c3c6751a404850
Content-Length: 212
Content-Type: application/json

{"mandateReference":"12345abcde","reference":"9f6f8ff0-afd8-4e9e-862b-267808487d6f","redirect":"http:\/\/mheumann2.hopto.org\/v1\/directdebit\/formservice\/de_DE_stadtn\/MiwjBp0qQfUH_us4oe3H6w","rc":"0","msg":""}
curl_error log:

[reply params @2017-09-30 14:02:50]
rc=0
msg=
reference=9f6f8ff0-afd8-4e9e-862b-267808487d6f
redirect=http://mheumann2.hopto.org/v1/directdebit/formservice/de_DE_stadtn/MiwjBp0qQfUH_us4oe3H6w


