[start @2018-01-04 10:45:47]

[PHP ini]

PHP version: 5.6.10
cURL: 7.43.0
ssl: OpenSSL/1.0.2k


[transaction @2018-01-04 10:45:47]
Zahlart: creditCardTransaction


[params set @2018-01-04 10:45:47]
merchantId=350000
projectId=442
merchantTxId=1234567890
amount=1705
currency=EUR
type=SALE
purpose=Beispieltransaktion
urlRedirect=https://dev.girosolution.de/redirect.php
urlNotify=https://dev.girosolution.de/notify.php


[cURL request @2018-01-04 10:45:50]
params:
merchantId=350000
projectId=442
merchantTxId=1234567890
amount=1705
currency=EUR
purpose=Beispieltransaktion
type=SALE
urlRedirect=https://dev.girosolution.de/redirect.php
urlNotify=https://dev.girosolution.de/notify.php
hash=a4e6b98a54d52677229e389fbd91a627
sourceId=localhost;PHP 2.1.18;;
userAgent=Mozilla/5.0 (Macintosh; Intel Mac OS X 10.13; rv:57.0) Gecko/20100101 Firefox/57.0

CurlInfo:
url=https://dev.girosolution.de/girocheckout/api/v2/transaction/start
content_type=application/json
http_code=200
header_size=344
request_size=204
filetime=-1
ssl_verify_result=0
redirect_count=0
total_time=2.178301
namelookup_time=0.000792
connect_time=0.23828
pretransfer_time=0.725482
size_upload=1474
size_download=190
speed_download=87
speed_upload=676
download_content_length=190
upload_content_length=1474
starttransfer_time=0.725512
redirect_time=0
redirect_url=
primary_ip=46.252.21.136
certinfo {
}
primary_port=443
local_ip=192.168.0.10
local_port=59574
request_header=POST /girocheckout/api/v2/transaction/start HTTP/1.1
Host: dev.girosolution.de
Accept: */*
Content-Length: 1474
Content-Type: multipart/form-data; boundary=------------------------46f38128d4bc0ded




[cURL reply @2018-01-04 10:45:50]
result:HTTP/1.1 200 OK
Date: Thu, 04 Jan 2018 13:45:49 GMT
Server: Apache
Strict-Transport-Security: max-age=31536000; includeSubDomains
Expires: Sun, 19 Nov 1978 05:00:00 GMT
Cache-Control: no-cache, must-revalidate
X-Content-Type-Options: nosniff
hash: 1513e070dfba043615b84ba42311b159
Content-Length: 190
Content-Type: application/json

{"reference":"20dd0f19-8bb8-4ce4-baea-5ec9aea15390","redirect":"https:\/\/test-payform.girocheckout.de\/web-api\/de\/R.po?n=bR5mT3aOERrYybuj5xG_wHbw26I7qcTNZVHtca6jBXd7Bw","rc":"0","msg":""}
curl_error log:

[reply params @2018-01-04 10:45:50]
rc=0
msg=
reference=20dd0f19-8bb8-4ce4-baea-5ec9aea15390
redirect=https://test-payform.girocheckout.de/web-api/de/R.po?n=bR5mT3aOERrYybuj5xG_wHbw26I7qcTNZVHtca6jBXd7Bw


